^C:\USERS\ADMIN\SOURCE\REPOS\HOMEWORK16\HOMEWORK16.CPP
C:\USERS\ADMIN\SOURCE\REPOS\HOMEWORK16\DEBUG\VC142.PDB
C:\USERS\ADMIN\SOURCE\REPOS\HOMEWORK16\DEBUG\VC142.IDB
C:\USERS\ADMIN\SOURCE\REPOS\HOMEWORK16\DEBUG\HOMEWORK16.OBJ
